<?xml version="1.0" encoding="UTF-8"?>
<svg width="200px" height="200px" viewBox="0 0 200 200" version="1.1" xmlns="http://www.w3.org/2000/svg" xmlns:xlink="http://www.w3.org/1999/xlink">
    <!-- Generator: Sketch 49 (51002) - http://www.bohemiancoding.com/sketch -->
    <title>Group</title>
    <desc>Created with Sketch.</desc>
    <defs></defs>
    <g id="Page-1" stroke="none" stroke-width="1" fill="none" fill-rule="evenodd">
        <g id="Group" fill-rule="nonzero">
            <path d="M99.697,199.757 C44.871,199.757 0.267,155.153 0.267,100.328 C0.267,45.503 44.871,0.898 99.697,0.898 C154.523,0.898 199.127,45.502 199.127,100.328 C199.127,155.154 154.523,199.757 99.697,199.757 Z" id="Shape" fill="#FFFFFF"></path>
            <path d="M99.9300003,178.859207 C56.4077616,178.859207 21,143.451445 21,99.9300003 C21,56.4085554 56.4077616,21 99.9300003,21 C143.452239,21 178.860001,56.4077616 178.860001,99.9300003 C178.860001,143.452239 143.452239,178.859207 99.9300003,178.859207 Z" id="Shape" fill="#27313A"></path>
            <polygon id="Shape" fill="#FFFFFF" points="132.66 46.152 99.697 79.115 66.734 46.152 45.521 67.365 78.484 100.327 45.521 133.29 66.734 154.503 99.697 121.54 132.66 154.503 153.873 133.29 120.91 100.327 153.873 67.365"></polygon>
        </g>
    </g>
</svg>